-----BEGIN PGP SIGNATURE-----
Version: BCPG v1.64

iQEcBAABCgAGBQJgUO35AAoJEIzt6/ijn0QGiHwH/0R7dITQFZO5tUE1fWWVty/L
8O6OWzhkMJjrwCZFI20GG91jP01vE6jrbyMZjl+TVaiZy77g+zM29B2C3UesXnug
G1Y5f/NIQ+i/GAC6FwWJIpxxsawglXTiyPYOcAwFzWTo1U3FeuvmfXV5hFAWRq35
pdMyJPLUsRJDkVRfL8YNMYa4pjBPUKS1A4tqQq13bWoxpOM+QZHdr6rEnbScTKs9
1uSSvPoAltO/48xYIgzvz0emtue9OyKMZdQqGhMkoOUh3MIKuxl0e0uhb/Q6tXl6
djEFDDXJ+c82+UwIYWuKiLcGkX8QI8WH/ybE+bNhIk8VMP1M90SXGvxSpZLDI/U=
=5+40
-----END PGP SIGNATURE-----
