-----BEGIN PGP SIGNATURE-----
Version: BCPG v1.64

iQEcBAABCgAGBQJg+GLbAAoJEIzt6/ijn0QGi+EIAKIb2uM3iXC+aqkUufXfOPUS
GlPLOzMuc5HFsReQ+vgQi4Jh0m5MiL46g3RRoWEyrYU3ZkJ22trvXjL6s0V3o5qS
Hi79iN6uIdMIULSXLbWMUFuLxjt6WP1UVo4Oro7IjsgYSOIw7ttcP8o7+OpvUe4X
LTcAmR/kcq5lwfRGypkb4VrHt2C7NpnMxMRM8hBIRa/0a3/luu/1m3pC87wODN29
ErSCru2ZYcQBNwKITuwcXzkvPMSuqaseIezIf9MPiEeKa5LY/7aswPG617GLBRLW
UasX1KZLW1ylKBsBVf9UcJ8tyf2jtpjw59FMy2p3gGobJaPc1Q3HsIsqsBnVZYg=
=8RY9
-----END PGP SIGNATURE-----
