-----BEGIN PGP SIGNATURE-----
Version: BCPG v1.64

iQEcBAABCgAGBQJgdfkYAAoJEIzt6/ijn0QGoKwH/iiHupAetjPW+rYmCYuezFpu
IPCCFokSdg4a7DqKQbU9zz81pmNB6FyG4MluFTVITrzFIAyCVUbZ54PYlcyZ0zc5
noThWMXC9i1jPnGIQfFl5t+0pXtxF9NNhHOp/BxKjGrRbTBM3ZrprLXBsnQuofY4
uUdXTRayvaQ1GIBIMmIoqPL6I1wLubfW6a8utz6etfYaxiamyVH4iCgGlXsG5Z4V
uU+tD0cY93QbzDYG1tnZEE0azPyiYkT6MI7WtfZKX07aOgDMSWlYZWbKUmiFqW9f
D/th8tvaC/demkd2fAUyBhs6/L2TVLRpcs3PiDHEfk4Rkyr2GD5VFXYD5pkKbyI=
=wJMu
-----END PGP SIGNATURE-----
