-----BEGIN PGP SIGNATURE-----
Version: BCPG v1.64

iQEcBAABCgAGBQJgdfkYAAoJEIzt6/ijn0QG0AYH/RxJozxshheC51gsA5hqwfiI
pu2o4GTxB7O/ah+0heMyGXRG1ydFDf/CQVj3OsWUi4AH7SqxYCppzd/z0EZPmB+U
CKeb1TgmCbXv78NBoD6LXTUGN3iCqajkD1SFxBNABAdjb+eHKFc3q89OOgHGs9Ib
nJRZuhIfCJEAALXA0+mxpdGydH6kk57nZ5zSixQqBOAV4KVnctR/RnELz2jJRLRR
TJ42DjY2CDhP5Sf8GqJ2IwknFVS7ek9P5mJQwZ23HgMBpDGjDtgXVYEdUJUV6wzD
AfFDoPfVapz54dAdpQK7IY/Z81bI4KDAs4kBLM3CNYYpgjdthHC9PyatNLrmoCs=
=27Ql
-----END PGP SIGNATURE-----
